{
	"components": {

		"related-products": {
			"label": "Related Products",
			"available": ["product"]
		},

		"people-watching": {
			"label": "People watching",
			"options": {

			},
			"available": ["product"]
		},

		"items-in-stock": {
			"label": "Items in stock",
			"available": ["product"]
		}

	},
	"pages": {

		"global": {

			"options": {

				"font-size": {
					"group": "Fonts",
					"label": "Font size",
					"type": "input-text",
					"value": 16
				},

				"line-height": {
					"group": "Fonts",
					"label": "Font line height",
					"type": "input-text",
					"value": 25
				},

				"background-color": {
					"group": "Background",
					"label": "Background color",
					"type": "color",
					"value": "fff"
				}

			},

			"sections": {

				"footer": {
					"label": "Footer",
					"components": [
						
					]
				}

			}

		},

		"home": {

			"options": {

			},

			"sections": []

		},

		"product": {

			"options": {

				"layout": {
					"label": "Layout",
					"type": "select",
					"value": "images-detail",
					"options": {
						"images-detail": "Images - Detail",
						"detail-images": "Detail - Images"
					}
				}

			},

			"sections": {
				"after": {
					"label": "After product detail",
					"components": []
				}
			}

		},

		"collections": {

		},

		"collection": {

		},

		"checkout": {

		},

		"page": {

		}

	}
		
}